[gd_scene load_steps=4 format=2]

[ext_resource path="res://src/Grid.gd" type="Script" id=1]
[ext_resource path="res://scenes/MainMenu.tscn" type="PackedScene" id=2]
[ext_resource path="res://scenes/LobbyMenu.tscn" type="PackedScene" id=3]

[node name="Main" type="Node2D"]
scale = Vector2( 0.5, 0.5 )

[node name="Grid" type="Container" parent="."]
visible = false
margin_right = 1920.0
margin_bottom = 1080.0
script = ExtResource( 1 )
__meta__ = {
"_edit_group_": true
}

[node name="MainMenu" parent="." instance=ExtResource( 2 )]

[node name="LobbyMenu" parent="." instance=ExtResource( 3 )]
[connection signal="button_up" from="MainMenu/CenterContainer/HBoxContainer/Start" to="Grid" method="new_game"]
[connection signal="button_up" from="MainMenu/CenterContainer/HBoxContainer/Multiplayer" to="LobbyMenu" method="popup"]

[editable path="MainMenu"]
