[gd_scene load_steps=4 format=2]

[ext_resource path="res://assets/Seshat.otf" type="DynamicFontData" id=1]
[ext_resource path="res://src/ExitButtonConnector.gd" type="Script" id=2]

[sub_resource type="DynamicFont" id=1]
size = 274
font_data = ExtResource( 1 )

[node name="MainMenu" type="MarginContainer"]
margin_right = 1920.0
margin_bottom = 1080.0

[node name="Background" type="ColorRect" parent="."]
margin_right = 1920.0
margin_bottom = 1080.0

[node name="Label" type="Label" parent="."]
margin_right = 1920.0
margin_bottom = 330.0
size_flags_vertical = 0
size_flags_stretch_ratio = 0.0
custom_fonts/font = SubResource( 1 )
custom_colors/font_color = Color( 0, 0, 0, 1 )
text = "Sodoko"
align = 1

[node name="CenterContainer" type="CenterContainer" parent="."]
margin_right = 1920.0
margin_bottom = 1080.0
__meta__ = {
"_edit_group_": true
}

[node name="HBoxContainer" type="VBoxContainer" parent="CenterContainer"]
margin_left = 395.0
margin_top = 347.0
margin_right = 1524.0
margin_bottom = 732.0
custom_constants/separation = 20
alignment = 1

[node name="Start" type="Button" parent="CenterContainer/HBoxContainer"]
margin_right = 1129.0
margin_bottom = 115.0
text = "MAIN_MENU_START_GAME"

[node name="Multiplayer" type="Button" parent="CenterContainer/HBoxContainer"]
margin_top = 135.0
margin_right = 1129.0
margin_bottom = 250.0
text = "MAIN_MENU_LOBBY"

[node name="Exit" type="Button" parent="CenterContainer/HBoxContainer"]
margin_top = 270.0
margin_right = 1129.0
margin_bottom = 385.0
text = "MAIN_MENU_EXIT"
script = ExtResource( 2 )
[connection signal="button_up" from="CenterContainer/HBoxContainer/Start" to="." method="set_visible" binds= [ false ]]
[connection signal="button_up" from="CenterContainer/HBoxContainer/Multiplayer" to="." method="set_visible" binds= [ false ]]
