[gd_resource type="GradientTexture" load_steps=2 format=2]

[sub_resource type="Gradient" id=1]
offsets = PoolRealArray( 1.38729e-43 )
colors = PoolColorArray( 1, 1, 1, 1 )

[resource]
gradient = SubResource( 1 )
width = 1
